{
	"name" : "RazHome OS",
	"description" : "Provides access to basic OS functions, like reboot and halt",
	"namespace" : "razhome.os",
	"commands" : [
		{ "name" : "shutdown", "phrases" : ["shutdown", "halt"] },
		{ "name" : "reboot", "phrases" : ["reboot", "restart"] }
	],	
	"deps" : {
		"apt" : [ "libpulse0" ],
		"pip" : [ "SpeechRecognition", "pyaudio" ]
	}
}